{
  "project_info": {
    "project_number": "538347117691",
    "firebase_url": "https://gift-in-app.firebaseio.com",
    "project_id": "gift-in-app",
    "storage_bucket": "gift-in-app.appspot.com"
  },
  "client": [
    {
      "client_info": {
        "mobilesdk_app_id": "1:538347117691:android:68e934027f995dc6",
        "android_client_info": {
          "package_name": "io.mediajogger.giftinapp"
        }
      },
      "oauth_client": [
        {
          "client_id": "538347117691-4cshfi19cu0ftpiabpcbc1k5vcu02r6s.apps.googleusercontent.com",
          "client_type": 1,
          "android_info": {
            "package_name": "io.mediajogger.giftinapp",
            "certificate_hash": "97422cb69d535a89a952506ab0f32e5efb95c32f"
          }
        },
        {
          "client_id": "538347117691-mg3aqli8rujtcmpjaaik7a09svsmj4pt.apps.googleusercontent.com",
          "client_type": 3
        }
      ],
      "api_key": [
        {
          "current_key": "AIzaSyB4eDmNOABICuCeTnfC_L5U_MhTJtLmMmk"
        }
      ],
      "services": {
        "analytics_service": {
          "status": 1
        },
        "appinvite_service": {
          "status": 2,
          "other_platform_oauth_client": [
            {
              "client_id": "538347117691-mg3aqli8rujtcmpjaaik7a09svsmj4pt.apps.googleusercontent.com",
              "client_type": 3
            }
          ]
        },
        "ads_service": {
          "status": 2
        }
      }
    }
  ],
  "configuration_version": "1"
}